{
  "type": "object",
  "title": "headline",
  "properties": {
    "headline": {
      "type": "string"
    },
    "intro": {
      "type": "object",
      "object": "TextRich"
    },
    "intro_slogan": {
      "type": "object",
      "object": "TextRichInline"
    }
  }
}
